{
  "project_info": {
    "project_number": "130118937287",
    "firebase_url": "https://firemessage-b89a1.firebaseio.com",
    "project_id": "firemessage-b89a1",
    "storage_bucket": "firemessage-b89a1.appspot.com"
  },
  "client": [
    {
      "client_info": {
        "mobilesdk_app_id": "1:130118937287:android:f16f7a8b5ceaa28a",
        "android_client_info": {
          "package_name": "com.nanliao.weatherapp"
        }
      },
      "oauth_client": [
        {
          "client_id": "130118937287-c8aqt2tcvm1k2hvp8u7otqldm5pthv8l.apps.googleusercontent.com",
          "client_type": 1,
          "android_info": {
            "package_name": "com.nanliao.weatherapp",
            "certificate_hash": "7c65ddb71e9b1c08f2c74787acb2e46eaf1d3d3e"
          }
        },
        {
          "client_id": "130118937287-9m0p973dqf6iqorel0ftaor8j0icfo7s.apps.googleusercontent.com",
          "client_type": 3
        }
      ],
      "api_key": [
        {
          "current_key": "AIzaSyAxUAHgxymbFT0fb9mapMWitXDJ2lQf_tA"
        }
      ],
      "services": {
        "appinvite_service": {
          "other_platform_oauth_client": [
            {
              "client_id": "130118937287-9m0p973dqf6iqorel0ftaor8j0icfo7s.apps.googleusercontent.com",
              "client_type": 3
            }
          ]
        }
      }
    }
  ],
  "configuration_version": "1"
}